[gd_scene load_steps=7 format=2]

[ext_resource path="res://Sprite/GUI/DeathMessage.png" type="Texture" id=1]
[ext_resource path="res://Sprite/Button/nice_Hover_small.png" type="Texture" id=2]
[ext_resource path="res://Sprite/Map/BGElgail.png" type="Texture" id=3]
[ext_resource path="res://Sprite/Button/nice_Pressed_small.png" type="Texture" id=4]
[ext_resource path="res://Sprite/Button/nice_Normal_small.png" type="Texture" id=5]
[ext_resource path="res://Skript/Buttons/Restart.cs" type="Script" id=6]

[node name="GameOver" type="Node2D"]

[node name="BGElgail" type="Sprite" parent="."]
position = Vector2( 674.541, 376.207 )
texture = ExtResource( 3 )

[node name="DeathMessage" type="Sprite" parent="."]
position = Vector2( 651.377, 254.388 )
scale = Vector2( 1.21303, 1.35037 )
texture = ExtResource( 1 )

[node name="Restart" type="TextureButton" parent="."]
margin_left = 527.93
margin_top = 414.297
margin_right = 727.93
margin_bottom = 660.297
texture_normal = ExtResource( 5 )
texture_pressed = ExtResource( 4 )
texture_hover = ExtResource( 2 )
script = ExtResource( 6 )
__meta__ = {
"_edit_use_anchors_": false
}
